module github.com/mijara/scythe

go 1.22.0

require (
	github.com/spaolacci/murmur3 v1.1.0
	github.com/stretchr/testify v1.8.4
	gopkg.in/yaml.v3 v3.0.1
)

require (
	github.com/davecgh/go-spew v1.1.1 // indirect
	github.com/pmezard/go-difflib v1.0.0 // indirect
)
